674824c6d57a96631864f7936f70e175a22eacee9de36401fd6d956ba3ab36edf07b8e84d41584a80c124d489d866644c7b2373540704cc0e7768e39f0d2a63a  flashplayer_square_p1_64bit_linux_091510.tar.gz
ceaedb0eb4f9173fee29d434b29991c9503e915c022497dc4f611404760cc55dcdd1c51037aa4880d72c669605e1cbf406d0829f75f770fdddb1f93e6edc9ec0  libflashplayer.so
http://download.macromedia.com/pub/labs/flashplayer10
